,Confidence,UserQuerry,recognized_intent
0,1,"The user name for log in was not found. Please contact the system administrator. I am not sure if I locked myself out or what but I am almost positive I am using the correct username.
",Default Fallback Intent
1,0.639999986," when i log into myppcc it says my username is not recognized
",forget_username
2,0.5," everytime I go to log in it says my username is invalid but I'm using my s number
",forget_username
3,0.50999999," Yeah, I am trying to setup my staff account but I do not have a username, Do I get that from you guys?
",pass_access
4,1," I downloaded Office 365 from the college website and now it's wanting me to put in a username
",Default Fallback Intent
5,0.920000017," Hi i havent logged in in several years, I was able to look up and find my username. But when I try and log in it says user not found
",pass_login
6,1," Hello, I recently got my S# number, but whenever I try to log in to the Rock, it just says my username isn't found. But the it should be correct, since if I purposely put in a wrong ID, it does say it's wrong
",Default Fallback Intent
7,0.649999976," Hi there, when I try to log in to eWolf, it says my username is invalid, which is my S#
",pass_login
8,0.709999979," I'm trying to login to ewolf and it's saying that my username is not found
",pass_login
9,1," Hi Mike.  When I'm logged into D2L I see my name displays as Brenda King, but my username is bdalgliesh.  I changed by last name from Dalgliesh in 2008...how do I make the username bking or something else?
",Default Fallback Intent
10,1," Hello, my name is Matthew Rushing and I'm a visiting student scheduled to start a rotation with UTSW in October.  I was given a link to a Moodle site but I don't have a username set up.
",Default Fallback Intent
,,,
,,,
,,,
,,Accuracy,60%
